…
  tesgcontainmentconnectivity::com_extract(here("analysis", "data", "derived_data", "dus-communities", paste0("dus-", i, ".tree")))
})
dus_stats <- tibble(markov = seq(0.10, 6, by = 0.10), 
                    members = map_int(dus_com, tesgcontainmentconnectivity::com_count),
                    codeLength = map_chr(seq(0.10, 6, by = 0.10), function(i) {
                      tesgcontainmentconnectivity::codeLength_extract(here("analysis", "data", "derived_data", "dus-communities", paste0("dus-", i, ".tree")))
                    }),
                    external = map_dbl(dus_com, function(com) tesgcontainmentconnectivity::com_external(com, totalFlow = dus, isolates = isolates)),
                    externalMedian = map_dbl(dus_com, function(com) tesgcontainmentconnectivity::com_externalMedian(com, totalFlow = dus, isolates = isolates))
) %>% 
  mutate(codeLength = as.numeric(codeLength))
dus_stats    
```

    ## # A tibble: 60 x 5
    ##    markov members codeLength external externalMedian
    ##     <dbl>   <int>      <dbl>    <dbl>          <dbl>
    ##  1    0.1      40       1.58   0.480          0.517 
    ##  2    0.2     414       2.85   0.411          0.501 
    ##  3    0.3     591       3.72   0.265          0.394 
    ##  4    0.4     493       4.22   0.161          0.208 
    ##  5    0.5     374       4.54   0.116          0.140 
    ##  6    0.6     304       4.78   0.0931         0.119 
    ##  7    0.7     253       4.99   0.0758         0.0989
    ##  8    0.8     225       5.15   0.0697         0.0872
    ##  9    0.9     204       5.30   0.0617         0.0783
    ## 10    1       187       5.43   0.0565         0.0680
    ## # … with 50 more rows
…
cp_stats <- tibble(markov = seq(0.10, 7, by = 0.10), 
                   members = map_int(cp_com, tesgcontainmentconnectivity::com_count),
                   codeLength = map_chr(seq(0.10, 7, by = 0.10), function(i) {
                     tesgcontainmentconnectivity::codeLength_extract(here("analysis", "data", "derived_data", "cp-communities", paste0("cp-", i, ".tree")))
                   }),
                   external = map_dbl(cp_com, function(com) tesgcontainmentconnectivity::com_external(com, totalFlow = centralplace, isolates = isolates)),
                   externalMedian = map_dbl(cp_com, function(com) tesgcontainmentconnectivity::com_externalMedian(com, totalFlow = centralplace, isolates = isolates))
) %>% 
  mutate(codeLength = as.numeric(codeLength))
cp_stats                  
```

    ## # A tibble: 70 x 5
    ##    markov members codeLength external externalMedian
    ##     <dbl>   <int>      <dbl>    <dbl>          <dbl>
    ##  1    0.1     155       1.54   0.455          0.553 
    ##  2    0.2     598       2.65   0.320          0.443 
    ##  3    0.3     641       3.25   0.182          0.247 
    ##  4    0.4     519       3.60   0.116          0.135 
    ##  5    0.5     424       3.84   0.0821         0.0960
    ##  6    0.6     368       4.02   0.0704         0.0776
    ##  7    0.7     322       4.18   0.0581         0.0673
    ##  8    0.8     297       4.30   0.0518         0.0594
    ##  9    0.9     276       4.42   0.0471         0.0555
    ## 10    1       264       4.52   0.0415         0.0514
    ## # … with 60 more rows
…
ex_com <- map(seq(0.15, 7, by = 0.15), function(i) {
  tesgcontainmentconnectivity::com_extract(here("analysis", "data", "derived_data", "ex-communities", paste0("ex-", i, ".tree")))
})
ex_stats <- tibble(markov = seq(0.15, 7, by = 0.15), 
                   members = map_int(ex_com, tesgcontainmentconnectivity::com_count),
                   codeLength = map_chr(seq(0.15, 7, by = 0.15), function(i) {
                     tesgcontainmentconnectivity::codeLength_extract(here("analysis", "data", "derived_data", "ex-communities", paste0("ex-", i, ".tree")))
                   }),
                   external = map_dbl(ex_com, function(com) tesgcontainmentconnectivity::com_external(com, totalFlow = export, isolates = isolates)),
                   externalMedian = map_dbl(ex_com, function(com) tesgcontainmentconnectivity::com_externalMedian(com, totalFlow = export, isolates = isolates))
)
ex_stats                  
```

    ## # A tibble: 46 x 5
    ##    markov members codeLength  external externalMedian
    ##     <dbl>   <int> <chr>          <dbl>          <dbl>
    ##  1  0.15        7 2.270721685    0.854          0.864
    ##  2  0.3       135 4.240626197    0.826          0.869
    ##  3  0.450     252 5.805657627    0.653          0.891
    ##  4  0.6       152 6.646298715    0.423          0.900
    ##  5  0.75       88 7.058903781    0.227          0.289
    ##  6  0.9        60 7.388348498    0.180          0.218
    ##  7  1.05       49 7.643788501    0.151          0.205
    ##  8  1.2        36 7.827003686    0.125          0.138
    ##  9  1.35       37 8.004564889    0.130          0.147
    ## 10  1.50       32 8.140380717    0.116          0.123
    ## # … with 36 more rows
…
